<?xml version="1.0" encoding="UTF-8" standalone="no"?>
<!-- Created with Inkscape (http://www.inkscape.org/) -->

<svg
   width="210mm"
   height="297mm"
   viewBox="0 0 210 297"
   version="1.1"
   id="svg5"
   inkscape:version="1.1.2 (0a00cf5339, 2022-02-04)"
   sodipodi:docname="hacker.svg"
   xmlns:inkscape="http://www.inkscape.org/namespaces/inkscape"
   xmlns:sodipodi="http://sodipodi.sourceforge.net/DTD/sodipodi-0.dtd"
   xmlns="http://www.w3.org/2000/svg"
   xmlns:svg="http://www.w3.org/2000/svg">
  <sodipodi:namedview
     id="namedview7"
     pagecolor="#ffffff"
     bordercolor="#666666"
     borderopacity="1.0"
     inkscape:pageshadow="2"
     inkscape:pageopacity="0.0"
     inkscape:pagecheckerboard="0"
     inkscape:document-units="mm"
     showgrid="false"
     inkscape:zoom="0.4187009"
     inkscape:cx="397.65857"
     inkscape:cy="560.06567"
     inkscape:window-width="1320"
     inkscape:window-height="704"
     inkscape:window-x="0"
     inkscape:window-y="0"
     inkscape:window-maximized="1"
     inkscape:current-layer="g3899-1-3" />
  <defs
     id="defs2" />
  <g
     inkscape:label="Layer 1"
     inkscape:groupmode="layer"
     id="layer1">
    <g
       id="g3899-1-3"
       transform="matrix(0.1109001,0,0,0.1109001,0.60176546,121.32965)">
      <path
         id="path5454"
         style="fill:#000000"
         d="m 185.31,105.25 c 0,102.34396 -82.96612,185.30992 -185.31,185.30992 -31.553408,0 -61.264889,-7.88622 -87.270937,-21.79516 C -145.61584,237.55988 -185.31,176.04053 -185.31,105.25 -185.31,2.9060438 -102.34388,-80.05992 0,-80.05992 c 102.34388,0 185.31,82.9659638 185.31,185.30992 z"
         transform="matrix(2.9201,0,0,2.9201,943.3,-92.858)"
         sodipodi:nodetypes="ssssss" />
      <path
         id="path3105-2-8"
         style="fill:#000080"
         d="m 742.39,498.59 c 0,0 -156.43,47.349 -182.74,105.19 -28.591,62.857 1.4375,207.16 1.4375,207.16 h 382.69 381.72 c 0,0 30.028,-144.3 1.4375,-207.16 -26.312,-57.846 -182.74,-105.19 -182.74,-105.19 h -200.42 z" />
      <path
         id="path3035-5-0"
         style="fill:#000080"
         d="m 943.78,-136.22 c -101.15,0 -204.93,114.5 -223.78,181.44 -30.108,106.91 -75.719,251.41 -75.719,315.72 0,75.792 88.312,163.94 88.312,163.94 67.277,67.277 189.73,142.14 211.19,142.14 21.455,0 144.91,-74.861 212.19,-142.14 0,0 88.312,-88.145 88.312,-163.94 0,-64.307 -45.61,-208.81 -75.719,-315.72 -18.851,-66.935 -123.63,-181.44 -224.78,-181.44 z" />
      <path
         id="path3075-5-4"
         style="fill:#ffffff"
         d="m 943.78,217.93 c -197.65,0 -262.56,61.562 -262.56,133.6 0,72.005 229.58,298.13 262.56,298.13 32.978,0 262.56,-226.12 262.56,-298.13 0,-72.035 -64.915,-133.6 -262.56,-133.6 z" />
    </g>
  </g>
</svg>
